…
---

.left-column[
## Pedestrian counting system
### - sensors
### - the data
]
.right-column[
* Sourced from [Melbourne open data portal](http://www.pedestrian.melbourne.vic.gov.au)
* Access the pedestrian data through the [rwalkr](http://pkg.earo.me/rwalkr/) package
* Up-to-date data till 2017-12-08

```
#> # A tibble: 371,736 x 5
#>                            Sensor  Date_Time       Date
#>                             <chr>     <dttm>     <date>
#>  1                   Alfred Place 2017-01-01 2017-01-01
#>  2           Australia on Collins 2017-01-01 2017-01-01
#>  3                 Birrarung Marr 2017-01-01 2017-01-01
#>  4    Bourke St-Russell St (West) 2017-01-01 2017-01-01
#>  5     Bourke Street Mall (North) 2017-01-01 2017-01-01
#>  6     Bourke Street Mall (South) 2017-01-01 2017-01-01
#>  7 Chinatown-Lt Bourke St (South) 2017-01-01 2017-01-01
#>  8  Chinatown-Swanston St (North) 2017-01-01 2017-01-01
#>  9                    City Square 2017-01-01 2017-01-01
#> 10          Collins Place (North) 2017-01-01 2017-01-01
#> # ... with 371,726 more rows, and 2 more variables:
#> #   Time <int>, Count <int>
```
…
